[gd_scene load_steps=10 format=2]

[ext_resource path="res://PixelInterface/Style/Tooltip.tres" type="StyleBox" id=1]
[ext_resource path="res://PixelInterface/Style/Cloud.tres" type="StyleBox" id=2]
[ext_resource path="res://PixelInterface/Style/CloudPress.tres" type="StyleBox" id=3]
[ext_resource path="res://PixelInterface/Style/CloudHover.tres" type="StyleBox" id=4]
[ext_resource path="res://PixelInterface/Theme.tres" type="Theme" id=5]
[ext_resource path="res://PixelInterface/Connect/Status.gd" type="Script" id=6]
[ext_resource path="res://PixelInterface/Style/CloudDisable.tres" type="StyleBox" id=7]
[ext_resource path="res://PixelInterface/Style/CloudFocus.tres" type="StyleBox" id=8]
[ext_resource path="res://PixelInterface/Style/PanelCorner.tres" type="StyleBox" id=9]

[node name="Status" type="Control"]
anchor_right = 1.0
anchor_bottom = 1.0
mouse_filter = 2
theme = ExtResource( 5 )

[node name="Panel" type="Panel" parent="."]
anchor_top = 1.0
anchor_bottom = 1.0
margin_top = -64.0
margin_right = 64.0
rect_min_size = Vector2( 64, 64 )
custom_styles/panel = ExtResource( 9 )
script = ExtResource( 6 )

[node name="Margin" type="MarginContainer" parent="Panel"]
modulate = Color( 1, 1, 1, 0 )
anchor_top = 0.5
anchor_bottom = 0.5
margin_left = 40.0
margin_top = -16.0
margin_right = 169.0
margin_bottom = 16.0
rect_min_size = Vector2( 32, 32 )
rect_rotation = -90.0
rect_pivot_offset = Vector2( -8, 16 )
mouse_filter = 2
size_flags_horizontal = 0

[node name="Panel" type="PanelContainer" parent="Panel/Margin"]
margin_right = 121.0
margin_bottom = 32.0
rect_min_size = Vector2( 32, 32 )
mouse_filter = 2
size_flags_horizontal = 0
custom_styles/panel = ExtResource( 1 )

[node name="Email" type="Label" parent="Panel/Margin/Panel"]
margin_left = 16.0
margin_top = 10.0
margin_right = 113.0
margin_bottom = 21.0
size_flags_horizontal = 0
text = "email@server.com"

[node name="Status" type="Button" parent="Panel"]
anchor_left = 0.5
anchor_top = 0.5
anchor_right = 0.5
anchor_bottom = 0.5
margin_left = -20.0
margin_top = -15.0
margin_right = 20.0
margin_bottom = 15.0
focus_neighbour_left = NodePath(".")
focus_neighbour_top = NodePath(".")
focus_neighbour_right = NodePath(".")
focus_neighbour_bottom = NodePath(".")
focus_next = NodePath(".")
focus_previous = NodePath(".")
mouse_filter = 1
custom_styles/hover = ExtResource( 4 )
custom_styles/pressed = ExtResource( 3 )
custom_styles/focus = ExtResource( 8 )
custom_styles/disabled = ExtResource( 7 )
custom_styles/normal = ExtResource( 2 )
shortcut_in_tooltip = false

[node name="Tween" type="Tween" parent="Panel"]
